                                         
                                         
                                         
                                         
                                         
                                         
                                         
                                         
                                         
                                         
                                         
                                         
                                         
                                         
                                         
                                         
                                         
                                         
                                         
                                         
                                         
                                       O 
      VGGGGGGG                 GGGGGGGGGG
      V                        SSSSSSSSSS
      V                        SSSSSSSSSS
      V                        SSSSSSSSSS
      V                        SSSSSSSSSS
  P*  V                        SSSSSSSSSS
GGGGGGG     +       c     t    SSSSSSSSSS
SSSSSSSGGGGGGGGGGGGGGGGGGGGGGGGSSSSSSSSSS
SSSSSSSSSSSSSSSSSSSSSSSSSSSSSSSSSSSSSSSSS