                                         
                                         
                                         
                                         
                                         
                                         
                                         
                                         
                                         
                                         
                                         
                                         
                                         
                                         
                                         
                                         
                                         
                                         
                 2                       
            GGGGGG                       
                                         
                                         
                                         
                                         
                                         
                                         
                                         
                                       o 
P    +                         GGGGGGGGGG
GGGGGGGGGGGGGGGGGGGGGGGGV   GGGSSSSSSSSSS
SSSSSSSSSSSSSSSSSSSSSSSSGGGGSSSSSSSSSSSSS