                                         
                                         
                                         
                                         
                                         
                                         
                                         
                                         
                                         
                                         
                                         
                                         
                                         
                                         
                                         
                                         
                                         
                                         
                                         
                                         
              F                          
         *VGGGG                       
       GGGG                              
                                         

      VGGGGGGGGGGG                                   
      V                                   
  P + V                                   
GGGGGGGV                  o   f     t    
SSSSSSSGGGGGGGGGGGGGGGGGGGGGGGGGGGGGGGGGG
SSSSSSSSSSSSSSSSSSSSSSSSSSSSSSSSSSSSSSSSS